<svg id="illustration_email_done" data-name="illustration_email done" xmlns="http://www.w3.org/2000/svg" width="67" height="42" viewBox="0 0 67 42">
  <metadata><?xpacket begin="﻿" id="W5M0MpCehiHzreSzNTczkc9d"?>
<x:xmpmeta xmlns:x="adobe:ns:meta/" x:xmptk="Adobe XMP Core 5.6-c138 79.159824, 2016/09/14-01:09:01        ">
   <rdf:RDF xmlns:rdf="http://www.w3.org/1999/02/22-rdf-syntax-ns#">
      <rdf:Description rdf:about=""/>
   </rdf:RDF>
</x:xmpmeta>
                                                                                                    
                                                                                                    
                                                                                                    
                                                                                                    
                                                                                                    
                                                                                                    
                                                                                                    
                                                                                                    
                                                                                                    
                                                                                                    
                                                                                                    
                                                                                                    
                                                                                                    
                                                                                                    
                                                                                                    
                                                                                                    
                                                                                                    
                                                                                                    
                                                                                                    
                                                                                                    
                           
<?xpacket end="w"?></metadata>
<defs>
    <style>
      .cls-1 {
        fill: #b6d8e5;
      }

      .cls-1, .cls-3 {
        fill-rule: evenodd;
      }

      .cls-2 {
        fill: #73d13b;
      }

      .cls-3 {
        fill: #fff;
      }
    </style>
  </defs>
  <path class="cls-1" d="M943,241H899a3.963,3.963,0,0,0-4,3.9V275.1a3.963,3.963,0,0,0,4,3.9H943a3.963,3.963,0,0,0,4-3.9V244.9A3.963,3.963,0,0,0,943,241Zm-0.582,2.887-21.14,17.621-21.14-17.621h42.28Zm1.624,31.21A1.036,1.036,0,0,1,943,276.113H899a1.036,1.036,0,0,1-1.042-1.016V245.876L920.309,264.5c0.011,0.011.033,0.022,0.044,0.033s0.033,0.021.044,0.032a0.432,0.432,0,0,0,.087.053c0.011,0.011.022,0.011,0.033,0.021l0.132,0.065c0.011,0,.022.01,0.033,0.01a1.157,1.157,0,0,0,.11.043c0.01,0,.033.011,0.043,0.011a0.351,0.351,0,0,0,.1.021c0.011,0,.033.011,0.044,0.011,0.033,0.01.077,0.01,0.11,0.021h0.033c0.044,0,.1.011,0.142,0.011h0a0.627,0.627,0,0,0,.143-0.011h0.033a0.412,0.412,0,0,0,.109-0.021c0.011,0,.033-0.011.044-0.011a0.319,0.319,0,0,1,.1-0.021c0.011,0,.033-0.011.044-0.011a0.74,0.74,0,0,0,.11-0.043c0.011,0,.022-0.01.033-0.01l0.131-.065c0.011-.01.022-0.01,0.033-0.021,0.033-.021.055-0.032,0.088-0.053,0.011-.011.033-0.022,0.044-0.032s0.033-.022.044-0.033l21.82-18.166V275.1Z" transform="translate(-895 -241)"/>
  <g id="bubble">
    <circle class="cls-2" cx="53" cy="28" r="14"/>
    <path id="Forma_1" data-name="Forma 1" class="cls-3" d="M947.786,274.494a1.763,1.763,0,0,1-2.464,0L941.5,270.74a1.694,1.694,0,0,1,0-2.423,1.765,1.765,0,0,1,2.465,0l2.275,2.236a0.446,0.446,0,0,0,.623,0l6.16-6.057a1.765,1.765,0,0,1,2.465,0,1.694,1.694,0,0,1,0,2.423Z" transform="translate(-895 -241)"/>
  </g>
</svg>
